…
You said:
so i've renamed the categories but so why are they different names in the "reason" column upon printing? > print(reasons_summary_18)
# A tibble: 72 × 4
   Action Reason                        Frequency Percentage
   <chr>  <chr>                             <int>      <dbl>
 1 green  product_confusing                    48         12
 2 green  product_costly                       48         12
 3 green  product_inconvenient                 48         12
 4 green  product_individual_difference        48         12
 5 green  product_ineffective                  48         12
 6 green  product_other                        48         12
 7 green  product_unavailable                  48         12
 8 green  product_uninterested                 48         12
 9 home   improvement_confusing                49         12
10 home   improvement_costly                   49         12
# ℹ 62 more rows
# ℹ Use print(n = ...) to see more rows
…
Reason	Purchase Green Products	Minimize Car Use
individual	48	0
costly	48	0
inconvenient	0	48
Let me know if this resolves the issue!






You said:
ok so its still being split improperly. > print(reason_summary_18)
# A tibble: 64 × 9
   Reason                        green  home  meat minimize reduce short  sort vehicle
   <chr>                         <int> <int> <int>    <int>  <int> <int> <int>   <int>
 1 product_confusing                48     0     0        0      0     0     0       0
 2 product_costly                   48     0     0        0      0     0     0       0
 3 product_inconvenient             48     0     0        0      0     0     0       0
 4 product_individual_difference    48     0     0        0      0     0     0       0
 5 product_ineffective              48     0     0        0      0     0     0       0
 6 product_other                    48     0     0        0      0     0     0       0
 7 product_unavailable              48     0     0        0      0     0     0       0
 8 product_uninterested             48     0     0        0      0     0     0       0
 9 improvement_confusing             0    49     0        0      0     0     0       0
10 improvement_costly                0    49     0        0      0     0     0       0
# ℹ 54 more rows. As you can see, its assuming the action is one word but its actually two. the actions are literally outlined in step 5. the reason should be one word
…
